\relax 
\@writefile{toc}{\contentsline {section}{\numberline {1}The Problem}{1}}
\@writefile{toc}{\contentsline {section}{\numberline {2}Notations}{1}}
\@writefile{toc}{\contentsline {section}{\numberline {3}The solution: Paxos}{2}}
\@writefile{toc}{\contentsline {section}{\numberline {4}Proof of the correctness of Paxos}{2}}
\@writefile{toc}{\contentsline {section}{\numberline {5}The implementation of Paxos in a key-value store}{3}}
\@writefile{toc}{\contentsline {section}{\numberline {6}Usage}{5}}
\@writefile{toc}{\contentsline {section}{\numberline {7}Discussions}{5}}
